ne,nj,method,index,value
0,nJ=12,RndE(J15),RMSE,0.530191644
0,nJ=12,PropE(J15),RMSE,0.530191644
0,nJ=12,RndE(J30),RMSE,0.378470331
0,nJ=12,PropE(J30),RMSE,0.378470331
0,nJ=3,RndE(J15),RMSE,0.491231933
0,nJ=3,PropE(J15),RMSE,0.491231933
0,nJ=3,RndE(J30),RMSE,0.378470331
0,nJ=3,PropE(J30),RMSE,0.378470331
0,nJ=6,RndE(J15),RMSE,0.530191644
0,nJ=6,PropE(J15),RMSE,0.530191644
0,nJ=6,RndE(J30),RMSE,0.378470331
0,nJ=6,PropE(J30),RMSE,0.378470331
1,nJ=12,RndE(J15),RMSE,0.427626097
1,nJ=12,PropE(J15),RMSE,0.41323638
1,nJ=12,RndE(J30),RMSE,0.353144006
1,nJ=12,PropE(J30),RMSE,0.33385849
1,nJ=3,RndE(J15),RMSE,0.394454874
1,nJ=3,PropE(J15),RMSE,0.370886044
1,nJ=3,RndE(J30),RMSE,0.348788483
1,nJ=3,PropE(J30),RMSE,0.340753589
1,nJ=6,RndE(J15),RMSE,0.481650764
1,nJ=6,PropE(J15),RMSE,0.403963833
1,nJ=6,RndE(J30),RMSE,0.341209441
1,nJ=6,PropE(J30),RMSE,0.331753888
2,nJ=12,RndE(J15),RMSE,0.370073504
2,nJ=12,PropE(J15),RMSE,0.337629165
2,nJ=12,RndE(J30),RMSE,0.328569848
2,nJ=12,PropE(J30),RMSE,0.29139429
2,nJ=3,RndE(J15),RMSE,0.3629556
2,nJ=3,PropE(J15),RMSE,0.323713556
2,nJ=3,RndE(J30),RMSE,0.307706494
2,nJ=3,PropE(J30),RMSE,0.300563278
2,nJ=6,RndE(J15),RMSE,0.399241837
2,nJ=6,PropE(J15),RMSE,0.37321481
2,nJ=6,RndE(J30),RMSE,0.306748116
2,nJ=6,PropE(J30),RMSE,0.29031799
3,nJ=12,RndE(J15),RMSE,0.367492767
3,nJ=12,PropE(J15),RMSE,0.321549569
3,nJ=12,RndE(J30),RMSE,0.315554934
3,nJ=12,PropE(J30),RMSE,0.272261853
3,nJ=3,RndE(J15),RMSE,0.33077459
3,nJ=3,PropE(J15),RMSE,0.32358118
3,nJ=3,RndE(J30),RMSE,0.311396965
3,nJ=3,PropE(J30),RMSE,0.293077845
3,nJ=6,RndE(J15),RMSE,0.332023054
3,nJ=6,PropE(J15),RMSE,0.308527806
3,nJ=6,RndE(J30),RMSE,0.303896687
3,nJ=6,PropE(J30),RMSE,0.278708866
0,nJ=12,RndE(J15),FI,3.868580508
0,nJ=12,PropE(J15),FI,3.868580508
0,nJ=12,RndE(J30),FI,9.77465182
0,nJ=12,PropE(J30),FI,9.77465182
0,nJ=3,RndE(J15),FI,4.508836165
0,nJ=3,PropE(J15),FI,4.508836165
0,nJ=3,RndE(J30),FI,9.77465182
0,nJ=3,PropE(J30),FI,9.77465182
0,nJ=6,RndE(J15),FI,3.868580508
0,nJ=6,PropE(J15),FI,3.868580508
0,nJ=6,RndE(J30),FI,9.77465182
0,nJ=6,PropE(J30),FI,9.77465182
1,nJ=12,RndE(J15),FI,6.078753165
1,nJ=12,PropE(J15),FI,7.062022542
1,nJ=12,RndE(J30),FI,12.54617831
1,nJ=12,PropE(J30),FI,14.47906342
1,nJ=3,RndE(J15),FI,6.844159544
1,nJ=3,PropE(J15),FI,7.519296373
1,nJ=3,RndE(J30),FI,12.61576987
1,nJ=3,PropE(J30),FI,13.78667842
1,nJ=6,RndE(J15),FI,6.105250808
1,nJ=6,PropE(J15),FI,6.978661284
1,nJ=6,RndE(J30),FI,12.61160143
1,nJ=6,PropE(J30),FI,14.2254618
2,nJ=12,RndE(J15),FI,8.185491258
2,nJ=12,PropE(J15),FI,10.13073044
2,nJ=12,RndE(J30),FI,14.682538
2,nJ=12,PropE(J30),FI,18.01399895
2,nJ=3,RndE(J15),FI,8.961755726
2,nJ=3,PropE(J15),FI,9.752038705
2,nJ=3,RndE(J30),FI,14.688715
2,nJ=3,PropE(J30),FI,15.79931275
2,nJ=6,RndE(J15),FI,8.191833254
2,nJ=6,PropE(J15),FI,9.462091652
2,nJ=6,RndE(J30),FI,14.7104802
2,nJ=6,PropE(J30),FI,17.23939471
3,nJ=12,RndE(J15),FI,10.15843399
3,nJ=12,PropE(J15),FI,12.83550666
3,nJ=12,RndE(J30),FI,16.98122993
3,nJ=12,PropE(J30),FI,21.30099782
3,nJ=3,RndE(J15),FI,11.20251768
3,nJ=3,PropE(J15),FI,11.37901528
3,nJ=3,RndE(J30),FI,16.44951457
3,nJ=3,PropE(J30),FI,16.93427079
3,nJ=6,RndE(J15),FI,10.21483772
3,nJ=6,PropE(J15),FI,11.79717248
3,nJ=6,RndE(J30),FI,16.76124951
3,nJ=6,PropE(J30),FI,19.51300591
0,nJ=12,RndE(J15),BIAS,-0.015132909
0,nJ=12,PropE(J15),BIAS,-0.015132909
0,nJ=12,RndE(J30),BIAS,-0.049938024
0,nJ=12,PropE(J30),BIAS,-0.049938024
0,nJ=3,RndE(J15),BIAS,-0.03948463
0,nJ=3,PropE(J15),BIAS,-0.03948463
0,nJ=3,RndE(J30),BIAS,-0.049938024
0,nJ=3,PropE(J30),BIAS,-0.049938024
0,nJ=6,RndE(J15),BIAS,-0.015132909
0,nJ=6,PropE(J15),BIAS,-0.015132909
0,nJ=6,RndE(J30),BIAS,-0.049938024
0,nJ=6,PropE(J30),BIAS,-0.049938024
1,nJ=12,RndE(J15),BIAS,0.011137796
1,nJ=12,PropE(J15),BIAS,0.013301683
1,nJ=12,RndE(J30),BIAS,-0.063669856
1,nJ=12,PropE(J30),BIAS,-0.064597196
1,nJ=3,RndE(J15),BIAS,0.000322644
1,nJ=3,PropE(J15),BIAS,-0.100310016
1,nJ=3,RndE(J30),BIAS,-0.037645049
1,nJ=3,PropE(J30),BIAS,-0.076404324
1,nJ=6,RndE(J15),BIAS,-0.037609846
1,nJ=6,PropE(J15),BIAS,-0.007701244
1,nJ=6,RndE(J30),BIAS,-0.060052874
1,nJ=6,PropE(J30),BIAS,-0.053822892
2,nJ=12,RndE(J15),BIAS,-0.061225595
2,nJ=12,PropE(J15),BIAS,-0.034704607
2,nJ=12,RndE(J30),BIAS,-0.017800381
2,nJ=12,PropE(J30),BIAS,-0.039066864
2,nJ=3,RndE(J15),BIAS,-0.027825669
2,nJ=3,PropE(J15),BIAS,-0.055816397
2,nJ=3,RndE(J30),BIAS,-0.034321429
2,nJ=3,PropE(J30),BIAS,-0.043537416
2,nJ=6,RndE(J15),BIAS,-0.030031772
2,nJ=6,PropE(J15),BIAS,-0.044921346
2,nJ=6,RndE(J30),BIAS,-0.03204242
2,nJ=6,PropE(J30),BIAS,-0.049977229
3,nJ=12,RndE(J15),BIAS,-0.002664993
3,nJ=12,PropE(J15),BIAS,-0.039894005
3,nJ=12,RndE(J30),BIAS,-0.064735466
3,nJ=12,PropE(J30),BIAS,-0.0791695
3,nJ=3,RndE(J15),BIAS,-0.080938445
3,nJ=3,PropE(J15),BIAS,-0.027357688
3,nJ=3,RndE(J30),BIAS,-0.065967754
3,nJ=3,PropE(J30),BIAS,-0.029512662
3,nJ=6,RndE(J15),BIAS,-0.009503831
3,nJ=6,PropE(J15),BIAS,-0.008172906
3,nJ=6,RndE(J30),BIAS,-0.06353379
3,nJ=6,PropE(J30),BIAS,-0.02982478