T,method,LOOP,index,value
1,RndG(J15),5 Repetitions,RMSE,0.66439533
1,PropG(J15),5 Repetitions,RMSE,0.692956593
2,RndG(J15),5 Repetitions,RMSE,0.609591826
2,PropG(J15),5 Repetitions,RMSE,0.610709299
3,RndG(J15),5 Repetitions,RMSE,0.528212705
3,PropG(J15),5 Repetitions,RMSE,0.552773351
4,RndG(J15),5 Repetitions,RMSE,0.490059866
4,PropG(J15),5 Repetitions,RMSE,0.448076064
5,RndG(J15),5 Repetitions,RMSE,0.492002207
5,PropG(J15),5 Repetitions,RMSE,0.398579477
1,RndG(J30),5 Repetitions,RMSE,0.796321323
1,PropG(J30),5 Repetitions,RMSE,0.680193718
2,RndG(J30),5 Repetitions,RMSE,0.552342736
2,PropG(J30),5 Repetitions,RMSE,0.529498983
3,RndG(J30),5 Repetitions,RMSE,0.45582635
3,PropG(J30),5 Repetitions,RMSE,0.43973361
4,RndG(J30),5 Repetitions,RMSE,0.405822497
4,PropG(J30),5 Repetitions,RMSE,0.385058976
5,RndG(J30),5 Repetitions,RMSE,0.351702984
5,PropG(J30),5 Repetitions,RMSE,0.346486046
1,RndG(J30),10 Repetitions,RMSE,0.68929317
1,PropG(J30),10 Repetitions,RMSE,0.641026603
2,RndG(J30),10 Repetitions,RMSE,0.522153438
2,PropG(J30),10 Repetitions,RMSE,0.509984209
3,RndG(J30),10 Repetitions,RMSE,0.435862625
3,PropG(J30),10 Repetitions,RMSE,0.420362149
4,RndG(J30),10 Repetitions,RMSE,0.399162004
4,PropG(J30),10 Repetitions,RMSE,0.36845738
5,RndG(J30),10 Repetitions,RMSE,0.343628726
5,PropG(J30),10 Repetitions,RMSE,0.320173588
1,RndG(J15),10 Repetitions,RMSE,0.740078811
1,PropG(J15),10 Repetitions,RMSE,0.728038591
2,RndG(J15),10 Repetitions,RMSE,0.653645149
2,PropG(J15),10 Repetitions,RMSE,0.580419218
3,RndG(J15),10 Repetitions,RMSE,0.542496458
3,PropG(J15),10 Repetitions,RMSE,0.537582974
4,RndG(J15),10 Repetitions,RMSE,0.496794474
4,PropG(J15),10 Repetitions,RMSE,0.481306012
5,RndG(J15),10 Repetitions,RMSE,0.482526402
5,PropG(J15),10 Repetitions,RMSE,0.436190432
1,RndG(J30),20 Repetitions,RMSE,0.608072486
1,PropG(J30),20 Repetitions,RMSE,0.615593969
2,RndG(J30),20 Repetitions,RMSE,0.448769049
2,PropG(J30),20 Repetitions,RMSE,0.456259995
3,RndG(J30),20 Repetitions,RMSE,0.384091839
3,PropG(J30),20 Repetitions,RMSE,0.384339491
4,RndG(J30),20 Repetitions,RMSE,0.348510883
4,PropG(J30),20 Repetitions,RMSE,0.338282027
5,RndG(J30),20 Repetitions,RMSE,0.307022726
5,PropG(J30),20 Repetitions,RMSE,0.302551174
1,RndG(J15),20 Repetitions,RMSE,0.799524539
1,PropG(J15),20 Repetitions,RMSE,0.740329577
2,RndG(J15),20 Repetitions,RMSE,0.650311997
2,PropG(J15),20 Repetitions,RMSE,0.610030159
3,RndG(J15),20 Repetitions,RMSE,0.545231936
3,PropG(J15),20 Repetitions,RMSE,0.536782337
4,RndG(J15),20 Repetitions,RMSE,0.499517357
4,PropG(J15),20 Repetitions,RMSE,0.487679169
5,RndG(J15),20 Repetitions,RMSE,0.466342757
5,PropG(J15),20 Repetitions,RMSE,0.438798788
1,RndG(J15),5 Repetitions,FI,1.233575016
1,PropG(J15),5 Repetitions,FI,1.396977167
2,RndG(J15),5 Repetitions,FI,1.861083002
2,PropG(J15),5 Repetitions,FI,2.114321407
3,RndG(J15),5 Repetitions,FI,2.548040174
3,PropG(J15),5 Repetitions,FI,2.874415874
4,RndG(J15),5 Repetitions,FI,3.407781361
4,PropG(J15),5 Repetitions,FI,3.812690108
5,RndG(J15),5 Repetitions,FI,4.393177244
5,PropG(J15),5 Repetitions,FI,4.937420093
1,RndG(J30),5 Repetitions,FI,1.294387775
1,PropG(J30),5 Repetitions,FI,1.385734765
2,RndG(J30),5 Repetitions,FI,3.28922762
2,PropG(J30),5 Repetitions,FI,3.541935286
3,RndG(J30),5 Repetitions,FI,5.134580545
3,PropG(J30),5 Repetitions,FI,5.526124449
4,RndG(J30),5 Repetitions,FI,6.768951212
4,PropG(J30),5 Repetitions,FI,7.31312869
5,RndG(J30),5 Repetitions,FI,8.795019821
5,PropG(J30),5 Repetitions,FI,9.517552309
1,RndG(J30),10 Repetitions,FI,2.201377437
1,PropG(J30),10 Repetitions,FI,2.613969425
2,RndG(J30),10 Repetitions,FI,4.430540376
2,PropG(J30),10 Repetitions,FI,5.094827444
3,RndG(J30),10 Repetitions,FI,6.108834231
3,PropG(J30),10 Repetitions,FI,6.888058578
4,RndG(J30),10 Repetitions,FI,7.853430784
4,PropG(J30),10 Repetitions,FI,8.794301577
5,RndG(J30),10 Repetitions,FI,10.01109524
5,PropG(J30),10 Repetitions,FI,11.16835806
1,RndG(J15),10 Repetitions,FI,0.980623514
1,PropG(J15),10 Repetitions,FI,1.126920632
2,RndG(J15),10 Repetitions,FI,1.804589188
2,PropG(J15),10 Repetitions,FI,2.027049157
3,RndG(J15),10 Repetitions,FI,2.439053835
3,PropG(J15),10 Repetitions,FI,2.729077727
4,RndG(J15),10 Repetitions,FI,3.061762912
4,PropG(J15),10 Repetitions,FI,3.402901835
5,RndG(J15),10 Repetitions,FI,3.934983694
5,PropG(J15),10 Repetitions,FI,4.379028212
1,RndG(J30),20 Repetitions,FI,2.424800335
1,PropG(J30),20 Repetitions,FI,2.816455519
2,RndG(J30),20 Repetitions,FI,5.400547824
2,PropG(J30),20 Repetitions,FI,6.231756605
3,RndG(J30),20 Repetitions,FI,7.536336969
3,PropG(J30),20 Repetitions,FI,8.575953213
4,RndG(J30),20 Repetitions,FI,9.762399497
4,PropG(J30),20 Repetitions,FI,11.04989826
5,RndG(J30),20 Repetitions,FI,11.94260614
5,PropG(J30),20 Repetitions,FI,13.4205997
1,RndG(J15),20 Repetitions,FI,0.815988484
1,PropG(J15),20 Repetitions,FI,0.923089496
2,RndG(J15),20 Repetitions,FI,1.622493781
2,PropG(J15),20 Repetitions,FI,1.793997617
3,RndG(J15),20 Repetitions,FI,2.420857263
3,PropG(J15),20 Repetitions,FI,2.683389046
4,RndG(J15),20 Repetitions,FI,3.09860726
4,PropG(J15),20 Repetitions,FI,3.416489941
5,RndG(J15),20 Repetitions,FI,3.94287718
5,PropG(J15),20 Repetitions,FI,4.364826911
1,RndG(J15),5 Repetitions,BIAS,-0.08746494
1,PropG(J15),5 Repetitions,BIAS,-0.022929361
2,RndG(J15),5 Repetitions,BIAS,-0.074110256
2,PropG(J15),5 Repetitions,BIAS,0.016869324
3,RndG(J15),5 Repetitions,BIAS,-0.087184459
3,PropG(J15),5 Repetitions,BIAS,0.004371634
4,RndG(J15),5 Repetitions,BIAS,-0.102594836
4,PropG(J15),5 Repetitions,BIAS,-0.00706122
5,RndG(J15),5 Repetitions,BIAS,-0.099243422
5,PropG(J15),5 Repetitions,BIAS,-0.032171548
1,RndG(J30),5 Repetitions,BIAS,0.065382253
1,PropG(J30),5 Repetitions,BIAS,0.047835458
2,RndG(J30),5 Repetitions,BIAS,0.009296127
2,PropG(J30),5 Repetitions,BIAS,0.06886632
3,RndG(J30),5 Repetitions,BIAS,-0.008285519
3,PropG(J30),5 Repetitions,BIAS,0.058887841
4,RndG(J30),5 Repetitions,BIAS,-0.01458989
4,PropG(J30),5 Repetitions,BIAS,0.043756712
5,RndG(J30),5 Repetitions,BIAS,-0.050742489
5,PropG(J30),5 Repetitions,BIAS,0.035099799
1,RndG(J30),10 Repetitions,BIAS,-0.011461599
1,PropG(J30),10 Repetitions,BIAS,-0.037647898
2,RndG(J30),10 Repetitions,BIAS,-0.034616292
2,PropG(J30),10 Repetitions,BIAS,0.007630346
3,RndG(J30),10 Repetitions,BIAS,-0.031065432
3,PropG(J30),10 Repetitions,BIAS,0.010991302
4,RndG(J30),10 Repetitions,BIAS,-0.036110744
4,PropG(J30),10 Repetitions,BIAS,0.012687418
5,RndG(J30),10 Repetitions,BIAS,-0.045632669
5,PropG(J30),10 Repetitions,BIAS,-0.001550626
1,RndG(J15),10 Repetitions,BIAS,-0.025794013
1,PropG(J15),10 Repetitions,BIAS,-0.004218309
2,RndG(J15),10 Repetitions,BIAS,-0.027624051
2,PropG(J15),10 Repetitions,BIAS,0.040823484
3,RndG(J15),10 Repetitions,BIAS,-0.038581802
3,PropG(J15),10 Repetitions,BIAS,0.016477456
4,RndG(J15),10 Repetitions,BIAS,-0.037702818
4,PropG(J15),10 Repetitions,BIAS,-0.001503334
5,RndG(J15),10 Repetitions,BIAS,-0.020003003
5,PropG(J15),10 Repetitions,BIAS,-0.029303363
1,RndG(J30),20 Repetitions,BIAS,0.007956887
1,PropG(J30),20 Repetitions,BIAS,0.005830915
2,RndG(J30),20 Repetitions,BIAS,-0.012424224
2,PropG(J30),20 Repetitions,BIAS,0.006594805
3,RndG(J30),20 Repetitions,BIAS,-0.00723177
3,PropG(J30),20 Repetitions,BIAS,0.011338082
4,RndG(J30),20 Repetitions,BIAS,-0.015930843
4,PropG(J30),20 Repetitions,BIAS,0.010987971
5,RndG(J30),20 Repetitions,BIAS,-0.02345814
5,PropG(J30),20 Repetitions,BIAS,0.002787566
1,RndG(J15),20 Repetitions,BIAS,0.012200586
1,PropG(J15),20 Repetitions,BIAS,-0.039869756
2,RndG(J15),20 Repetitions,BIAS,0.003535138
2,PropG(J15),20 Repetitions,BIAS,-0.017888179
3,RndG(J15),20 Repetitions,BIAS,-0.004564433
3,PropG(J15),20 Repetitions,BIAS,-0.022280368
4,RndG(J15),20 Repetitions,BIAS,0.003201889
4,PropG(J15),20 Repetitions,BIAS,-0.031974886
5,RndG(J15),20 Repetitions,BIAS,0.013546317
5,PropG(J15),20 Repetitions,BIAS,-0.045176635