G,T,method,index,value
G=3,1,RndE(J30),RMSE,0.458016592
G=3,1,PropE(J30),RMSE,0.413375239
G=3,1,RndE(J15),RMSE,0.519203984
G=3,1,PropE(J15),RMSE,0.436250271
G=3,2,RndE(J30),RMSE,0.321352076
G=3,2,PropE(J30),RMSE,0.26899402
G=3,2,RndE(J15),RMSE,0.363905711
G=3,2,PropE(J15),RMSE,0.332916485
G=3,3,RndE(J30),RMSE,0.267061357
G=3,3,PropE(J30),RMSE,0.227398479
G=3,3,RndE(J15),RMSE,0.304146416
G=3,3,PropE(J15),RMSE,0.300375813
G=3,4,RndE(J30),RMSE,0.249094424
G=3,4,PropE(J30),RMSE,0.211809655
G=3,4,RndE(J15),RMSE,0.268755167
G=3,4,PropE(J15),RMSE,0.266152414
G=3,5,RndE(J30),RMSE,0.213371426
G=3,5,PropE(J30),RMSE,0.181120177
G=3,5,RndE(J15),RMSE,0.236458614
G=3,5,PropE(J15),RMSE,0.224646682
G=4,1,RndE(J30),RMSE,0.491370367
G=4,1,PropE(J30),RMSE,0.445206693
G=4,1,RndE(J15),RMSE,0.545320489
G=4,1,PropE(J15),RMSE,0.460209418
G=4,2,RndE(J30),RMSE,0.354624156
G=4,2,PropE(J30),RMSE,0.328208788
G=4,2,RndE(J15),RMSE,0.409287981
G=4,2,PropE(J15),RMSE,0.324011604
G=4,3,RndE(J30),RMSE,0.287102646
G=4,3,PropE(J30),RMSE,0.262091
G=4,3,RndE(J15),RMSE,0.338349754
G=4,3,PropE(J15),RMSE,0.293264602
G=4,4,RndE(J30),RMSE,0.256536455
G=4,4,PropE(J30),RMSE,0.237475495
G=4,4,RndE(J15),RMSE,0.300861402
G=4,4,PropE(J15),RMSE,0.277872929
G=4,5,RndE(J30),RMSE,0.228660613
G=4,5,PropE(J30),RMSE,0.205902296
G=4,5,RndE(J15),RMSE,0.290752152
G=4,5,PropE(J15),RMSE,0.238942248
G=5,1,RndE(J30),RMSE,0.550937933
G=5,1,PropE(J30),RMSE,0.457307265
G=5,1,RndE(J15),RMSE,0.556491902
G=5,1,PropE(J15),RMSE,0.466736061
G=5,2,RndE(J30),RMSE,0.416804345
G=5,2,PropE(J30),RMSE,0.32706085
G=5,2,RndE(J15),RMSE,0.411259281
G=5,2,PropE(J15),RMSE,0.337094429
G=5,3,RndE(J30),RMSE,0.336634479
G=5,3,PropE(J30),RMSE,0.271152524
G=5,3,RndE(J15),RMSE,0.364681792
G=5,3,PropE(J15),RMSE,0.31256768
G=5,4,RndE(J30),RMSE,0.299290921
G=5,4,PropE(J30),RMSE,0.246030685
G=5,4,RndE(J15),RMSE,0.318014672
G=5,4,PropE(J15),RMSE,0.284363438
G=5,5,RndE(J30),RMSE,0.253489856
G=5,5,PropE(J30),RMSE,0.21354308
G=5,5,RndE(J15),RMSE,0.286758676
G=5,5,PropE(J15),RMSE,0.233711105
G=3,1,RndE(J30),FI,5.652212236
G=3,1,PropE(J30),FI,7.250525094
G=3,1,RndE(J15),FI,3.670119968
G=3,1,PropE(J15),FI,4.742797314
G=3,2,RndE(J30),FI,11.30723097
G=3,2,PropE(J30),FI,14.46696632
G=3,2,RndE(J15),FI,6.599218729
G=3,2,PropE(J15),FI,8.743038637
G=3,3,RndE(J30),FI,15.43627387
G=3,3,PropE(J30),FI,19.7533389
G=3,3,RndE(J15),FI,8.931038932
G=3,3,PropE(J15),FI,11.7749824
G=3,4,RndE(J30),FI,19.82808207
G=3,4,PropE(J30),FI,25.38863713
G=3,4,RndE(J15),FI,11.11431203
G=3,4,PropE(J15),FI,14.74648238
G=3,5,RndE(J30),FI,25.23764336
G=3,5,PropE(J30),FI,32.31416956
G=3,5,RndE(J15),FI,14.27693416
G=3,5,PropE(J15),FI,18.91619822
G=4,1,RndE(J30),FI,4.661701905
G=4,1,PropE(J30),FI,6.295332893
G=4,1,RndE(J15),FI,2.995436787
G=4,1,PropE(J15),FI,4.331269908
G=4,2,RndE(J30),FI,9.250527349
G=4,2,PropE(J30),FI,12.53022624
G=4,2,RndE(J15),FI,5.528405384
G=4,2,PropE(J15),FI,7.953507855
G=4,3,RndE(J30),FI,12.59944066
G=4,3,PropE(J30),FI,17.04731839
G=4,3,RndE(J15),FI,7.516819415
G=4,3,PropE(J15),FI,10.69575403
G=4,4,RndE(J30),FI,16.14813555
G=4,4,PropE(J30),FI,21.87743579
G=4,4,RndE(J15),FI,9.372730166
G=4,4,PropE(J15),FI,13.3966722
G=4,5,RndE(J30),FI,20.53813034
G=4,5,PropE(J30),FI,27.81476888
G=4,5,RndE(J15),FI,12.03335391
G=4,5,PropE(J15),FI,17.17219621
G=5,1,RndE(J30),FI,3.803034236
G=5,1,PropE(J30),FI,5.62827799
G=5,1,RndE(J15),FI,2.593466427
G=5,1,PropE(J15),FI,3.962194832
G=5,2,RndE(J30),FI,7.587729577
G=5,2,PropE(J30),FI,11.11309682
G=5,2,RndE(J15),FI,4.722969071
G=5,2,PropE(J15),FI,7.295706715
G=5,3,RndE(J30),FI,10.39795636
G=5,3,PropE(J30),FI,15.06455563
G=5,3,RndE(J15),FI,6.366269642
G=5,3,PropE(J15),FI,9.800334686
G=5,4,RndE(J30),FI,13.35161879
G=5,4,PropE(J30),FI,19.30977449
G=5,4,RndE(J15),FI,7.949448611
G=5,4,PropE(J15),FI,12.29420449
G=5,5,RndE(J30),FI,17.01188705
G=5,5,PropE(J30),FI,24.53392919
G=5,5,RndE(J15),FI,10.26844824
G=5,5,PropE(J15),FI,15.75609457
G=3,1,RndE(J30),BIAS,-0.04324853
G=3,1,PropE(J30),BIAS,-0.037234839
G=3,1,RndE(J15),BIAS,-0.020313061
G=3,1,PropE(J15),BIAS,-0.008016352
G=3,2,RndE(J30),BIAS,-0.010482713
G=3,2,PropE(J30),BIAS,-0.017368283
G=3,2,RndE(J15),BIAS,-0.006976327
G=3,2,PropE(J15),BIAS,-0.002437883
G=3,3,RndE(J30),BIAS,-0.007030281
G=3,3,PropE(J30),BIAS,-0.011969383
G=3,3,RndE(J15),BIAS,0.011554551
G=3,3,PropE(J15),BIAS,0.011414689
G=3,4,RndE(J30),BIAS,-0.011119879
G=3,4,PropE(J30),BIAS,-0.017323198
G=3,4,RndE(J15),BIAS,-0.000125187
G=3,4,PropE(J15),BIAS,0.004494608
G=3,5,RndE(J30),BIAS,-0.003351931
G=3,5,PropE(J30),BIAS,-0.011292472
G=3,5,RndE(J15),BIAS,-0.009611994
G=3,5,PropE(J15),BIAS,0.000504029
G=4,1,RndE(J30),BIAS,-0.025854259
G=4,1,PropE(J30),BIAS,-0.019866718
G=4,1,RndE(J15),BIAS,-0.023807062
G=4,1,PropE(J15),BIAS,-0.025750802
G=4,2,RndE(J30),BIAS,-0.018917553
G=4,2,PropE(J30),BIAS,-0.025520052
G=4,2,RndE(J15),BIAS,0.005245173
G=4,2,PropE(J15),BIAS,-0.0176693
G=4,3,RndE(J30),BIAS,-0.015562666
G=4,3,PropE(J30),BIAS,-0.019718648
G=4,3,RndE(J15),BIAS,0.00058787
G=4,3,PropE(J15),BIAS,-0.001103437
G=4,4,RndE(J30),BIAS,-0.005457386
G=4,4,PropE(J30),BIAS,-0.02262491
G=4,4,RndE(J15),BIAS,-0.011742201
G=4,4,PropE(J15),BIAS,-0.004843232
G=4,5,RndE(J30),BIAS,-0.005172527
G=4,5,PropE(J30),BIAS,-0.018624175
G=4,5,RndE(J15),BIAS,-0.024666307
G=4,5,PropE(J15),BIAS,-0.003450269
G=5,1,RndE(J30),BIAS,-0.013250999
G=5,1,PropE(J30),BIAS,-0.0153308
G=5,1,RndE(J15),BIAS,0.022699855
G=5,1,PropE(J15),BIAS,-0.006983993
G=5,2,RndE(J30),BIAS,-0.00306482
G=5,2,PropE(J30),BIAS,-0.009045449
G=5,2,RndE(J15),BIAS,0.034138954
G=5,2,PropE(J15),BIAS,0.002763264
G=5,3,RndE(J30),BIAS,0.005855426
G=5,3,PropE(J30),BIAS,-0.002296326
G=5,3,RndE(J15),BIAS,0.01433644
G=5,3,PropE(J15),BIAS,0.012101916
G=5,4,RndE(J30),BIAS,0.003312479
G=5,4,PropE(J30),BIAS,-0.009685214
G=5,4,RndE(J15),BIAS,0.003006225
G=5,4,PropE(J15),BIAS,0.002859115
G=5,5,RndE(J30),BIAS,-0.003325337
G=5,5,PropE(J30),BIAS,-0.012115493
G=5,5,RndE(J15),BIAS,-0.007624038
G=5,5,PropE(J15),BIAS,-0.000449221